…
neighborhoods %>% select(neighborhood, geometry, X, Y)
```

    # A tibble: 24 x 4
       neighborhood                       geometry     X     Y
       <chr>                           <POINT [°]> <dbl> <dbl>
     1 Bloomington Heights    (-93.63524 42.05642) -93.6  42.1
     2 Bluestem               (-93.66378 42.02309) -93.7  42.0
     3 Briardale               (-93.62882 42.0528) -93.6  42.1
     4 Brookside              (-93.63039 42.02865) -93.6  42.0
     5 Clear Creek             (-93.64883 42.0361) -93.6  42.0
     6 College Creek           (-93.65151 42.0222) -93.7  42.0
     7 Crawford                (-93.6489 42.01861) -93.6  42.0
     8 Edwards                (-93.68539 42.01551) -93.7  42.0
     9 Gilbert                (-93.64966 42.10693) -93.6  42.1
    10 Iowa DOT and Rail Road   (-93.62202 42.022) -93.6  42.0
    # ... with 14 more rows
…
